{
  "version": "2.1",
  "licenses": [
    {
      "id": "BSD-3-Clause",
      "name": "BSD 3-Clause \"New\" or \"Revised\" License",
      "url": "https://opensource.org/licenses/BSD-3-Clause"
    },
    {
      "id": "MIT",
      "name": "MIT License",
      "url": "https://opensource.org/licenses/MIT"
    }
  ],
  "dependencies": [
    {
      "name": "highlight.js",
      "version": "9.16.2",
      "package_manager": "npm",
      "path": "package.json",
      "licenses": [
        "BSD-3-Clause"
      ]
    },
    {
      "name": "js-npm",
      "version": "1.0.0",
      "package_manager": "npm",
      "path": "package.json",
      "licenses": [
        "BSD-3-Clause",
        "MIT"
      ]
    },
    {
      "name": "moment",
      "version": "2.24.0",
      "package_manager": "npm",
      "path": "package.json",
      "licenses": [
        "MIT"
      ]
    },
    {
      "name": "normalize.css",
      "version": "7.0.0",
      "package_manager": "npm",
      "path": "package.json",
      "licenses": [
        "MIT"
      ]
    }
  ]
}